<svg width="89" height="50" viewBox="0 0 89 50" fill="none" xmlns="http://www.w3.org/2000/svg">
<g clip-path="url(#clip0_1_87)">
<path d="M4.72085 0.893219L0.886375 37.3991H13.5311L17.3656 0.893219H4.72085Z" fill="#13100D"/>
<path d="M42.9342 0.893219H28.3767L16.9968 13.6683H15.7582L14.7424 24.3214L16.0238 24.3184L25.2729 37.3991H39.4617L28.4136 19.1461L42.9342 0.893219Z" fill="#13100D"/>
<path d="M41.9 37.3991L45.2256 1.26296C45.2256 1.26296 72.2168 1.19096 81.2138 1.26296C81.2138 1.26296 88.9732 1.38555 87.938 13.9485C86.9037 26.5115 85.4258 37.3991 85.4258 37.3991H75.6718C75.6718 37.3991 77.7413 18.5439 77.9339 12.6496C77.9728 11.4704 71.0404 11.1153 70.8478 12.6827C70.1969 17.9659 68.43 37.3991 68.43 37.3991H59.2665C59.2665 37.3991 60.7561 17.8531 61.554 12.2741C61.7427 10.9537 54.1779 10.8681 53.9453 12.5698C53.453 16.1844 51.6297 37.3991 51.6297 37.3991H41.9Z" fill="#13100D"/>
<path d="M8.79176 40.8891C8.99122 40.8891 9.17511 40.9144 9.34246 40.9621C9.50883 41.0097 9.64797 41.0798 9.75889 41.1732C9.86981 41.2656 9.94764 41.3804 9.9924 41.5176C10.0372 41.6548 10.0333 41.8154 9.98073 42.0012L9.12451 45.2227C9.10311 45.2966 9.04376 45.3871 8.94743 45.4942C8.85111 45.6022 8.73435 45.7063 8.59716 45.8055C8.45997 45.9057 8.30819 45.9904 8.14181 46.0604C7.97543 46.1305 7.81003 46.1665 7.64754 46.1665H3.27988C3.19913 46.1665 3.14367 46.2219 3.1135 46.3329C3.09891 46.3922 3.09502 46.4545 3.10183 46.5216C3.10864 46.5888 3.13004 46.653 3.16313 46.7162C3.19718 46.7785 3.24486 46.831 3.3081 46.8709C3.37037 46.9118 3.45015 46.9332 3.54648 46.9332H8.21284L7.62419 49.1107H1.19092L1.08 49.0873C0.924322 49.0727 0.776431 49.0338 0.63535 48.9706C0.494269 48.9083 0.372648 48.8266 0.26854 48.7264C0.165406 48.6262 0.0885409 48.5143 0.0408654 48.3878C-0.00778309 48.2623 -0.0136209 48.1329 0.0243249 47.9986L1.32421 43.1435C1.39816 42.8623 1.48281 42.586 1.57913 42.3155C1.67545 42.045 1.80097 41.8047 1.95664 41.5925C2.11232 41.3824 2.30302 41.2111 2.52875 41.0817C2.75448 40.9523 3.03469 40.8871 3.36745 40.8871H8.79078L8.79176 40.8891ZM7.2029 43.701C7.23209 43.6115 7.23792 43.5103 7.21944 43.3955C7.20095 43.2807 7.12506 43.2232 6.99176 43.2232H3.94734L3.70215 44.1349H6.63565C6.75436 44.1349 6.87111 44.0892 6.98592 43.9958C7.09976 43.9043 7.17273 43.8061 7.20192 43.702" fill="#13100D"/>
<path d="M21.1582 40.8891L18.6402 44.9143L18.358 40.8891H15.3019L16.0131 49.1126H19.0799L24.2143 40.8891H21.1582Z" fill="#13100D"/>
<path d="M36.9748 49.1126H30.4082C30.0589 49.1126 29.7816 49.0124 29.5744 48.812C29.3672 48.6116 29.2076 48.3654 29.0967 48.0725C28.9857 47.7806 28.9138 47.4644 28.8797 47.1288C28.8466 46.7911 28.834 46.4895 28.8417 46.2229L29.1531 45.0563C29.2416 44.7226 29.3389 44.384 29.4479 44.0405C29.5549 43.6961 29.6912 43.3634 29.8585 43.0452C30.0259 42.727 30.2312 42.4244 30.4754 42.1394C30.7196 41.8553 31.0202 41.6052 31.3754 41.3902C31.4269 41.36 31.5048 41.3172 31.6079 41.2627C31.712 41.2063 31.8249 41.1508 31.9465 41.0944C32.0691 41.0399 32.1897 40.9913 32.3075 40.9494C32.4262 40.9105 32.5264 40.8891 32.6081 40.8891H39.1757L38.5423 43.2447H33.1977C33.0275 43.2447 32.8679 43.3098 32.72 43.4393C32.5721 43.5687 32.4349 43.7078 32.3084 43.8557H37.3085L36.6751 46.1889H31.6196C31.6566 46.3601 31.7344 46.4983 31.8531 46.6053C31.9718 46.7133 32.146 46.7658 32.3756 46.7658H37.6092L36.9758 49.1107L36.9748 49.1126Z" fill="#13100D"/>
<path d="M53.0317 40.8891C53.3353 40.8891 53.5999 40.9708 53.8266 41.1333C54.0533 41.2968 54.2343 41.505 54.3715 41.756C54.5077 42.008 54.5953 42.2843 54.6332 42.584C54.6702 42.8847 54.6517 43.1707 54.5768 43.4451L53.0541 49.1126H50.3327L51.6774 44.1116C51.7221 43.9345 51.6978 43.7934 51.6054 43.6893C51.5129 43.5862 51.3923 43.5074 51.2444 43.45C51.0955 43.3945 50.9379 43.3585 50.7725 43.339C50.6061 43.3205 50.467 43.3118 50.3561 43.3118H48.5337L46.9779 49.1117H44.1437L46.3445 40.8881H53.0337L53.0317 40.8891Z" fill="#13100D"/>
<path d="M61.3205 40.8891H70.2319L69.5985 43.2447H66.5648L64.9983 49.1126H62.1981L63.7655 43.2447H60.6871L61.3205 40.8891Z" fill="#13100D"/>
<path d="M77.2597 46.1782C77.1711 46.1782 77.0612 46.1558 76.9318 46.111C76.8024 46.0672 76.6837 46.0001 76.5766 45.9116C76.4686 45.823 76.385 45.7121 76.3266 45.5778C76.2663 45.4455 76.2594 45.2898 76.3032 45.1118L77.1371 42.0012C77.1731 41.8669 77.249 41.7375 77.3647 41.612C77.4786 41.4865 77.6148 41.3727 77.7695 41.2734C77.9252 41.1732 78.0915 41.0915 78.2696 41.0282C78.4477 40.966 78.6179 40.927 78.7814 40.9115C78.8553 40.8969 78.8962 40.8901 78.904 40.8901H85.3382L84.7603 43.0676H80.0929C79.9596 43.0676 79.8487 43.09 79.7592 43.1347C79.6707 43.1795 79.5987 43.2349 79.5422 43.3011C79.4868 43.3682 79.442 43.4441 79.409 43.5297C79.3759 43.6154 79.3476 43.702 79.3253 43.7915L79.3136 43.8362H83.7805C83.944 43.8362 84.0899 43.8713 84.2203 43.9423C84.3487 44.0123 84.4587 44.098 84.5482 44.1982C84.6367 44.2964 84.7 44.4015 84.736 44.5095C84.7739 44.6166 84.7817 44.708 84.7593 44.781L83.8914 48.0025C83.8408 48.1883 83.7552 48.3489 83.6365 48.4861C83.5188 48.6232 83.3796 48.7381 83.2201 48.8305C83.0615 48.9229 82.8844 48.9939 82.6918 49.0416C82.4981 49.0903 82.3035 49.1146 82.1021 49.1146H75.2466L75.8469 46.8583H81.5018C81.6351 46.8359 81.7499 46.7931 81.8414 46.7308C81.9338 46.6685 82.0019 46.5557 82.0476 46.3912L82.069 46.292C82.0759 46.2628 82.0817 46.2414 82.0846 46.2249C82.0885 46.2103 82.0895 46.1947 82.0895 46.1801H77.2558L77.2597 46.1782Z" fill="#13100D"/>
</g>
<defs>
<clipPath id="clip0_1_87">
<rect width="88.0333" height="48.2194" fill="white" transform="translate(0 0.893219)"/>
</clipPath>
</defs>
</svg>
