<svg width="300" height="297" viewBox="0 0 300 297" fill="none" xmlns="http://www.w3.org/2000/svg">
<path d="M266.574 53.8043C255.181 27.2124 218.498 22.6277 201.592 21.1245C184.686 19.6196 174.564 14.9422 154.712 7.69176C134.861 0.441311 123.809 -0.438288 110.263 2.57513C109.746 2.69123 109.229 2.82342 108.714 2.96787C108.199 3.11401 107.69 3.27481 107.189 3.44812C94.08 8.0015 85.1407 14.5591 72.0608 31.1587C58.9815 47.7599 52.8271 57.0587 39.2359 67.2233C25.6414 77.3889 -3.15652 100.567 1.12364 129.178C5.40549 157.789 14.6487 162.543 20.1553 187.793C25.6635 213.042 25.9655 220.231 29.4608 232.54C32.956 244.85 40.6559 265.112 70.2643 271.358C99.871 277.605 114.777 276.699 132.963 285.148C146.852 291.631 166.012 296.93 177.385 296.749C181.59 296.682 186.328 296.093 191.467 294.408C196.725 293.139 201.066 291.15 204.678 288.999C214.45 283.176 227.966 268.599 236.375 255.784C247.407 239.037 260.565 231.976 282.471 211.102C304.377 190.229 300.281 168.944 296.786 156.634C293.291 144.325 289.77 138.049 281.187 113.673C272.604 89.2972 277.97 80.3951 266.575 53.8038L266.574 53.8043Z" fill="#FF0041"/>
</svg>
