<svg width="664" height="830" viewBox="0 0 664 830" fill="none" xmlns="http://www.w3.org/2000/svg">
<path d="M528.662 -162.346C482.124 -270.936 332.204 -289.626 263.11 -295.749C194.014 -301.879 152.652 -320.972 71.5235 -350.564C-9.60547 -380.157 -54.7709 -383.739 -110.137 -371.419C-112.253 -370.944 -114.366 -370.404 -116.471 -369.814C-118.575 -369.216 -120.654 -368.559 -122.704 -367.851C-176.284 -349.243 -212.826 -322.453 -266.299 -254.648C-319.771 -186.836 -344.933 -148.854 -400.49 -107.329C-456.061 -65.8001 -573.781 28.8851 -556.314 145.73C-538.841 262.574 -501.068 281.98 -478.586 385.094C-456.098 488.207 -454.87 517.567 -440.596 567.836C-426.323 618.105 -394.872 700.847 -273.867 726.329C-152.869 751.812 -91.9469 748.097 -17.6286 782.587C39.13 809.05 117.432 830.674 163.915 829.923C181.101 829.648 200.467 827.238 221.473 820.353C242.962 815.165 260.704 807.037 275.472 798.246C315.414 774.457 370.667 714.911 405.049 662.568C450.151 594.163 503.936 565.314 593.487 480.046C683.037 394.778 666.318 307.852 652.045 257.583C637.771 207.314 623.386 181.69 588.331 82.146C553.276 -17.3983 575.214 -53.7593 528.669 -162.348L528.662 -162.346Z" fill="#FF0041"/>
</svg>
