<svg width="121" height="41" viewBox="0 0 121 41" fill="none" xmlns="http://www.w3.org/2000/svg">
<path d="M32.25 23.1833H28.4167C28.1292 23.1833 27.9375 23.375 27.9375 23.6625V31.0417H23.2417V23.6625C23.2417 23.375 23.05 23.1833 22.7625 23.1833H20.3667V18.4875H22.6667C22.9542 18.4875 23.1459 18.2958 23.1459 18.0083V15.4208C23.1459 14.175 23.625 9.95834 28.7042 9.95834H32.6334V13.8875H29.95C29.1834 13.8875 28.225 14.3667 28.225 15.7083V17.5292H26.7875C26.5 17.5292 26.3084 17.7208 26.3084 18.0083C26.3084 18.2958 26.5 18.4875 26.7875 18.4875H28.7042H31.2917H32.6334L32.25 23.1833Z" fill="white"/>
<path d="M47.104 25.5H45.168V16.2197H50.4873V17.832H47.104V20.2251H50.2524V21.8311H47.104V25.5ZM56.6572 25.5L56.2827 24.5352H56.2319C55.9061 24.9456 55.5697 25.2313 55.2227 25.3921C54.8799 25.5487 54.4313 25.627 53.877 25.627C53.1956 25.627 52.6582 25.4323 52.2646 25.043C51.8753 24.6536 51.6807 24.0993 51.6807 23.3799C51.6807 22.6266 51.943 22.0723 52.4678 21.7168C52.9967 21.3571 53.7923 21.1582 54.8545 21.1201L56.0859 21.082V20.771C56.0859 20.0516 55.7178 19.6919 54.9814 19.6919C54.4144 19.6919 53.7479 19.8633 52.9819 20.2061L52.3408 18.8984C53.1576 18.471 54.0632 18.2573 55.0576 18.2573C56.0098 18.2573 56.7397 18.4647 57.2476 18.8794C57.7554 19.2941 58.0093 19.9246 58.0093 20.771V25.5H56.6572ZM56.0859 22.2119L55.3369 22.2373C54.7741 22.2542 54.3551 22.3558 54.0801 22.542C53.805 22.7282 53.6675 23.0117 53.6675 23.3926C53.6675 23.9385 53.9806 24.2114 54.6069 24.2114C55.0555 24.2114 55.4131 24.0824 55.6797 23.8242C55.9505 23.5661 56.0859 23.2233 56.0859 22.7959V22.2119ZM62.8906 25.627C60.6816 25.627 59.5771 24.4146 59.5771 21.9897C59.5771 20.7837 59.8776 19.8633 60.4785 19.2285C61.0794 18.5895 61.9406 18.27 63.062 18.27C63.883 18.27 64.6193 18.4308 65.271 18.7524L64.6997 20.2505C64.395 20.1278 64.1115 20.0283 63.8491 19.9521C63.5868 19.8717 63.3244 19.8315 63.062 19.8315C62.0549 19.8315 61.5513 20.5467 61.5513 21.9771C61.5513 23.3651 62.0549 24.0591 63.062 24.0591C63.4344 24.0591 63.7793 24.0104 64.0967 23.9131C64.4141 23.8115 64.7314 23.6549 65.0488 23.4434V25.1001C64.7357 25.299 64.4183 25.4365 64.0967 25.5127C63.7793 25.5889 63.3773 25.627 62.8906 25.627ZM69.6382 19.6475C69.2277 19.6475 68.9061 19.7786 68.6733 20.041C68.4406 20.2992 68.3073 20.6673 68.2734 21.1455H70.9902C70.9818 20.6673 70.8569 20.2992 70.6157 20.041C70.3745 19.7786 70.0487 19.6475 69.6382 19.6475ZM69.9111 25.627C68.7686 25.627 67.8757 25.3117 67.2324 24.6812C66.5892 24.0506 66.2676 23.1577 66.2676 22.0024C66.2676 20.8133 66.5638 19.895 67.1562 19.2476C67.7529 18.5959 68.576 18.27 69.6255 18.27C70.6284 18.27 71.4092 18.5557 71.9678 19.127C72.5264 19.6982 72.8057 20.4875 72.8057 21.4946V22.4341H68.229C68.2502 22.9842 68.4131 23.4137 68.7178 23.7227C69.0225 24.0316 69.4499 24.186 70 24.186C70.4274 24.186 70.8315 24.1416 71.2124 24.0527C71.5933 23.9639 71.991 23.8221 72.4058 23.6274V25.1255C72.0672 25.2948 71.7054 25.4196 71.3203 25.5C70.9352 25.5846 70.4655 25.627 69.9111 25.627ZM78.3281 18.27C79.166 18.27 79.8219 18.598 80.2959 19.2539C80.7699 19.9056 81.0068 20.8006 81.0068 21.939C81.0068 23.1112 80.7614 24.0189 80.2705 24.6621C79.7839 25.3053 79.1195 25.627 78.2773 25.627C77.4437 25.627 76.7899 25.3244 76.3159 24.7192H76.1826L75.8589 25.5H74.3799V15.623H76.3159V17.9209C76.3159 18.2129 76.2905 18.6805 76.2397 19.3237H76.3159C76.7687 18.6213 77.4395 18.27 78.3281 18.27ZM77.7061 19.8188C77.2279 19.8188 76.8787 19.967 76.6587 20.2632C76.4386 20.5552 76.3244 21.0397 76.3159 21.7168V21.9263C76.3159 22.688 76.4281 23.2339 76.6523 23.564C76.8809 23.894 77.2406 24.0591 77.7314 24.0591C78.1292 24.0591 78.4445 23.8771 78.6772 23.5132C78.9142 23.145 79.0327 22.6118 79.0327 21.9136C79.0327 21.2153 78.9142 20.6927 78.6772 20.3457C78.4403 19.9945 78.1165 19.8188 77.7061 19.8188ZM84.1489 21.939C84.1489 22.6414 84.2632 23.1725 84.4917 23.5322C84.7244 23.8919 85.1011 24.0718 85.6216 24.0718C86.1379 24.0718 86.5081 23.894 86.7324 23.5386C86.9609 23.1789 87.0752 22.6457 87.0752 21.939C87.0752 21.2365 86.9609 20.7096 86.7324 20.3584C86.5039 20.0072 86.1294 19.8315 85.6089 19.8315C85.0926 19.8315 84.7202 20.0072 84.4917 20.3584C84.2632 20.7054 84.1489 21.2323 84.1489 21.939ZM89.0557 21.939C89.0557 23.0942 88.751 23.9977 88.1416 24.6494C87.5322 25.3011 86.6838 25.627 85.5962 25.627C84.9149 25.627 84.314 25.4788 83.7935 25.1826C83.2729 24.8822 82.873 24.4526 82.5938 23.894C82.3145 23.3354 82.1748 22.6838 82.1748 21.939C82.1748 20.7795 82.4774 19.8781 83.0825 19.2349C83.6877 18.5916 84.5382 18.27 85.6343 18.27C86.3156 18.27 86.9165 18.4181 87.437 18.7144C87.9575 19.0106 88.3574 19.4359 88.6367 19.9902C88.916 20.5446 89.0557 21.1942 89.0557 21.939ZM92.1978 21.939C92.1978 22.6414 92.312 23.1725 92.5405 23.5322C92.7733 23.8919 93.1499 24.0718 93.6704 24.0718C94.1867 24.0718 94.557 23.894 94.7812 23.5386C95.0098 23.1789 95.124 22.6457 95.124 21.939C95.124 21.2365 95.0098 20.7096 94.7812 20.3584C94.5527 20.0072 94.1782 19.8315 93.6577 19.8315C93.1414 19.8315 92.769 20.0072 92.5405 20.3584C92.312 20.7054 92.1978 21.2323 92.1978 21.939ZM97.1045 21.939C97.1045 23.0942 96.7998 23.9977 96.1904 24.6494C95.5811 25.3011 94.7326 25.627 93.645 25.627C92.9637 25.627 92.3628 25.4788 91.8423 25.1826C91.3218 24.8822 90.9219 24.4526 90.6426 23.894C90.3633 23.3354 90.2236 22.6838 90.2236 21.939C90.2236 20.7795 90.5262 19.8781 91.1313 19.2349C91.7365 18.5916 92.5871 18.27 93.6831 18.27C94.3644 18.27 94.9653 18.4181 95.4858 18.7144C96.0063 19.0106 96.4062 19.4359 96.6855 19.9902C96.9648 20.5446 97.1045 21.1942 97.1045 21.939ZM100.564 21.6406L101.408 20.5615L103.395 18.4033H105.579L102.76 21.4819L105.75 25.5H103.516L101.472 22.6245L100.64 23.291V25.5H98.7041V15.623H100.64V20.0283L100.539 21.6406H100.564Z" fill="white"/>
<rect x="0.5" y="0.5" width="120" height="40" rx="7.5" stroke="white"/>
</svg>
